{
    "key": "statsMachine",
    "initial": "QUESTIONARIES",
    "states": {
        "QUESTIONARIES": {
            "on": {
                "open": "STATISTICS"
            }
        },
        "STATISTICS": {
            "on": {
                "goToLogin": "LOGIN"
            }
        }
    }
}